…
```r
cryptodata <- group_by(cryptodata, symbol)
```

Now if we run the same operation using the [**count()**]{style="color: green;"} function, the operation is performed grouped by the cryptocurrency symbol:


```r
count(cryptodata)
```

```
## # A tibble: 224 x 2
## # Groups:   symbol [224]
##    symbol     n
##    <chr>  <int>
##  1 AAB     1397
##  2 ACAT    2280
##  3 ACT     2025
##  4 ADA     1727
##  5 ADX      326
##  6 ADXN     762
##  7 ALGO      75
##  8 AMB      654
##  9 AMM      947
## 10 APL      633
## # … with 214 more rows
```
…
Now we can finally convert the table to a [**tsibble**]{style="color: blue;"} data type by using the [**as_tsibble()**]{style="color: green;"} function from the [**tsibble**]{style="color: #ae7b11;"} package [@R-tsibble], and providing the [**symbol**]{style="color: blue;"} column for the [**key**]{style="color: blue;"} parameter to preserve the grouped structure:   


```r
cryptodata <- as_tsibble(cryptodata, index = ts_index, key = symbol)
```

Notice how the preview of the data below looks a bit different from the summary we were seeing up to this point, and now it says "A tsibble", and next to the table dimensions says **[1h]**, indicating the observations are 1 hour apart from each other. The second row tells us the "Key" of the [**tsibble**]{style="color: blue;"} is the [**symbol**]{style="color: blue;"} column

```r
cryptodata
```

```
## # A tsibble: 174,799 x 34 [1h] <UTC>
## # Key:       symbol [90]
## # Groups:    symbol [90]
##    pair  symbol quote_currency ask_1_price ask_1_quantity ask_2_price
##    <chr> <chr>  <chr>                <dbl>          <dbl>       <dbl>
##  1 AABU… AAB    USD                  0.390           104.       0.39 
##  2 AABU… AAB    USD                  0.390           104.       0.39 
##  3 AABU… AAB    USD                  0.390           104.       0.39 
##  4 AABU… AAB    USD                  0.390           104.       0.39 
##  5 AABU… AAB    USD                  0.390           104.       0.39 
##  6 AABU… AAB    USD                  0.390           104.       0.39 
##  7 AABU… AAB    USD                  0.390           104.       0.39 
##  8 AABU… AAB    USD                  0.390           104.       0.390
##  9 AABU… AAB    USD                  0.390           104.       0.390
## 10 AABU… AAB    USD                  0.390           104.       0.390
## # … with 174,789 more rows, and 28 more variables: ask_2_quantity <dbl>,
## #   ask_3_price <dbl>, ask_3_quantity <dbl>, ask_4_price <dbl>,
## #   ask_4_quantity <dbl>, ask_5_price <dbl>, ask_5_quantity <dbl>,
## #   bid_1_price <dbl>, bid_1_quantity <dbl>, bid_2_price <dbl>,
## #   bid_2_quantity <dbl>, bid_3_price <dbl>, bid_3_quantity <dbl>,
## #   bid_4_price <dbl>, bid_4_quantity <dbl>, bid_5_price <dbl>,
## #   bid_5_quantity <dbl>, date_time_utc <dttm>, date <date>, pkDummy <chr>,
## #   pkey <chr>, trade_usd_1 <dbl>, trade_usd_2 <dbl>, trade_usd_3 <dbl>,
## #   trade_usd_4 <dbl>, trade_usd_5 <dbl>, price_usd <dbl>, ts_index <dttm>
```
…
```r
cryptodata <- fill_gaps(cryptodata)
```



Now looking at the data again, there are 42347 additional rows that were added as implicitly missing in the data:


```r
cryptodata
```

```
## # A tsibble: 217,146 x 34 [1h] <UTC>
## # Key:       symbol [90]
## # Groups:    symbol [90]
##    pair  symbol quote_currency ask_1_price ask_1_quantity ask_2_price
##    <chr> <chr>  <chr>                <dbl>          <dbl>       <dbl>
##  1 AABU… AAB    USD                  0.390           104.       0.39 
##  2 AABU… AAB    USD                  0.390           104.       0.39 
##  3 AABU… AAB    USD                  0.390           104.       0.39 
##  4 AABU… AAB    USD                  0.390           104.       0.39 
##  5 AABU… AAB    USD                  0.390           104.       0.39 
##  6 AABU… AAB    USD                  0.390           104.       0.39 
##  7 AABU… AAB    USD                  0.390           104.       0.39 
##  8 AABU… AAB    USD                  0.390           104.       0.390
##  9 AABU… AAB    USD                  0.390           104.       0.390
## 10 AABU… AAB    USD                  0.390           104.       0.390
## # … with 217,136 more rows, and 28 more variables: ask_2_quantity <dbl>,
## #   ask_3_price <dbl>, ask_3_quantity <dbl>, ask_4_price <dbl>,
## #   ask_4_quantity <dbl>, ask_5_price <dbl>, ask_5_quantity <dbl>,
## #   bid_1_price <dbl>, bid_1_quantity <dbl>, bid_2_price <dbl>,
## #   bid_2_quantity <dbl>, bid_3_price <dbl>, bid_3_quantity <dbl>,
## #   bid_4_price <dbl>, bid_4_quantity <dbl>, bid_5_price <dbl>,
## #   bid_5_quantity <dbl>, date_time_utc <dttm>, date <date>, pkDummy <chr>,
## #   pkey <chr>, trade_usd_1 <dbl>, trade_usd_2 <dbl>, trade_usd_3 <dbl>,
## #   trade_usd_4 <dbl>, trade_usd_5 <dbl>, price_usd <dbl>, ts_index <dttm>
```
…
Let's view an example of the oldest 30 rows of data associated with the Bitcoin cryptocurrency (`symbol == "BTC"`). With the oldest data starting from the top, the [**lagged_price_1h**]{style="color: blue;"} field should have a NA value for the first row because we don't have any prices before that point. By that same logic, the [**lagged_price_24h**]{style="color: blue;"} column should be missing the first 24 values and have the last 6 values showing the first 6 rows of the [**price_usd**]{style="color: blue;"} column. The [**target_price_24h**]{style="color: blue;"} would values for the oldest data because the opposite is true and we don't know the values for data for the most recent 24 rows of the data:


```r
print(select(filter(cryptodata, symbol == 'BTC'), 
             ts_index, price_usd, lagged_price_1h, 
             lagged_price_24h, target_price_24h), n=30)
```

```
## # A tibble: 2,775 x 6
## # Groups:   symbol [1]
##    symbol ts_index            price_usd lagged_price_1h lagged_price_24h
##    <chr>  <dttm>                  <dbl>           <dbl>            <dbl>
##  1 BTC    2020-08-13 00:00:00    11573.             NA               NA 
##  2 BTC    2020-08-13 01:00:00    11634.          11573.              NA 
##  3 BTC    2020-08-13 02:00:00    11606.          11634.              NA 
##  4 BTC    2020-08-13 03:00:00    11552.          11606.              NA 
##  5 BTC    2020-08-13 04:00:00    11580.          11552.              NA 
##  6 BTC    2020-08-13 05:00:00    11537.          11580.              NA 
##  7 BTC    2020-08-13 06:00:00    11513.          11537.              NA 
##  8 BTC    2020-08-13 07:00:00    11566.          11513.              NA 
##  9 BTC    2020-08-13 08:00:00    11488.          11566.              NA 
## 10 BTC    2020-08-13 09:00:00    11387.          11488.              NA 
## 11 BTC    2020-08-13 10:00:00    11382.          11387.              NA 
## 12 BTC    2020-08-13 11:00:00    11485.          11382.              NA 
## 13 BTC    2020-08-13 12:00:00    11563.          11485.              NA 
## 14 BTC    2020-08-13 13:00:00    11481.          11563.              NA 
## 15 BTC    2020-08-13 14:00:00    11511.          11481.              NA 
## 16 BTC    2020-08-13 15:00:00    11512.          11511.              NA 
## 17 BTC    2020-08-13 16:00:00    11503.          11512.              NA 
## 18 BTC    2020-08-13 17:00:00    11530.          11503.              NA 
## 19 BTC    2020-08-13 18:00:00    11530.          11530.              NA 
## 20 BTC    2020-08-13 19:00:00    11499.          11530.              NA 
## 21 BTC    2020-08-13 20:00:00    11524.          11499.              NA 
## 22 BTC    2020-08-13 21:00:00    11697.          11524.              NA 
## 23 BTC    2020-08-13 22:00:00    11742.          11697.              NA 
## 24 BTC    2020-08-13 23:00:00    11740.          11742.              NA 
## 25 BTC    2020-08-14 00:00:00    11827.          11740.           11573.
## 26 BTC    2020-08-14 01:00:00    11720.          11827.           11634.
## 27 BTC    2020-08-14 02:00:00    11761.          11720.           11606.
## 28 BTC    2020-08-14 03:00:00    11722.          11761.           11552.
## 29 BTC    2020-08-14 04:00:00    11747.          11722.           11580.
## 30 BTC    2020-08-14 05:00:00    11717.          11747.           11537.
## # … with 2,745 more rows, and 1 more variable: target_price_24h <dbl>
```
…
Our data now has the new columns `training` (*train*, *test* or *holdout*) and `split` (numbers 1-5) added to it, let's take a look at the new columns:


```r
select(cryptodata, training, split)
```

```
## # A tibble: 174,799 x 3
## # Groups:   symbol [90]
##    symbol training split
##    <chr>  <chr>    <dbl>
##  1 EOS    train        1
##  2 BCH    train        1
##  3 NEO    train        1
##  4 IQ     train        1
##  5 LEO    train        1
##  6 STX    train        1
##  7 ACT    train        1
##  8 EURS   train        1
##  9 MBL    train        1
## 10 BTG    train        1
## # … with 174,789 more rows
```
…
```r
find_zero_var <- select(mutate(cryptodata, min_sd = min(sd(price_usd, na.rm=T), 
                                                        sd(target_price_24h, na.rm=T),
                                                        sd(lagged_price_1h, na.rm=T), 
                                                        sd(lagged_price_2h, na.rm=T),
                                                        sd(lagged_price_3h, na.rm=T), 
                                                        sd(lagged_price_6h, na.rm=T),
                                                        sd(lagged_price_12h, na.rm=T), 
                                                        sd(lagged_price_24h, na.rm=T))), min_sd)
# Show data
find_zero_var
```

```
## # A tibble: 174,799 x 4
## # Groups:   symbol, split, training [900]
##    symbol split training     min_sd
##    <chr>  <dbl> <chr>         <dbl>
##  1 EOS        1 train    0.239     
##  2 BCH        1 train    9.29      
##  3 NEO        1 train    0.830     
##  4 IQ         1 train    0.0124    
##  5 LEO        1 train    0.0792    
##  6 STX        1 train    0.000621  
##  7 ACT        1 train    0.00624   
##  8 EURS       1 train    0.00433   
##  9 MBL        1 train    0.00000898
## 10 BTG        1 train    0.583     
## # … with 174,789 more rows
```
…
<!-- ```{r group_for_nest} -->
<!-- cryptodata <- group_by(cryptodata, symbol, split, training) -->
<!-- ``` -->

Here is an example of what happens when we [**nest()**]{style="color: green;"} the data:


```r
nest(cryptodata) 
```

```
## # A tibble: 480 x 4
## # Groups:   symbol, training, split [480]
##    symbol training split data               
##    <chr>  <chr>    <dbl> <list>             
##  1 EOS    train        1 <tibble [435 × 11]>
##  2 BCH    train        1 <tibble [181 × 11]>
##  3 NEO    train        1 <tibble [182 × 11]>
##  4 EURS   train        1 <tibble [176 × 11]>
##  5 BTG    train        1 <tibble [417 × 11]>
##  6 DGB    train        1 <tibble [442 × 11]>
##  7 XUC    train        1 <tibble [166 × 11]>
##  8 LTC    train        1 <tibble [442 × 11]>
##  9 NUT    train        1 <tibble [309 × 11]>
## 10 NEXO   train        1 <tibble [441 × 11]>
## # … with 470 more rows
```
…
```{.scroll-lim}
## # A tibble: 240 x 3
## # Groups:   symbol, split [240]
##    symbol split train_data         
##    <chr>  <dbl> <list>             
##  1 EOS        1 <tibble [348 × 11]>
##  2 BCH        1 <tibble [109 × 11]>
##  3 NEO        1 <tibble [110 × 11]>
##  4 EURS       1 <tibble [77 × 11]> 
##  5 BTG        1 <tibble [323 × 11]>
##  6 DGB        1 <tibble [355 × 11]>
##  7 XUC        1 <tibble [94 × 11]> 
##  8 LTC        1 <tibble [355 × 11]>
##  9 NUT        1 <tibble [230 × 11]>
## 10 NEXO       1 <tibble [354 × 11]>
## # … with 230 more rows
```
…
```r
cryptodata_test <- select(rename(nest(filter(cryptodata, 
                                             training=='test')), 
                                 test_data = 'data'), 
                          -training)
# Now remove training column
cryptodata_test <- select(ungroup(cryptodata_test, 
                                  training), 
                          -training)
# Show nested data
cryptodata_test
```

```
## # A tibble: 192 x 3
## # Groups:   symbol, split [192]
##    symbol split test_data         
##    <chr>  <dbl> <list>            
##  1 XUC        1 <tibble [42 × 11]>
##  2 BCH        1 <tibble [46 × 11]>
##  3 MKR        1 <tibble [45 × 11]>
##  4 NEO        1 <tibble [46 × 11]>
##  5 EURS       1 <tibble [45 × 11]>
##  6 ICX        1 <tibble [45 × 11]>
##  7 XRP        1 <tibble [49 × 11]>
##  8 NUT        1 <tibble [78 × 11]>
##  9 VIB        1 <tibble [89 × 11]>
## 10 CUR        1 <tibble [93 × 11]>
## # … with 182 more rows
```
…
```r
cryptodata_holdout <- rename(nest(filter(cryptodata, 
                                         training=='holdout')), 
                             holdout_data = 'data')
# Remove split and training columns from holdout
cryptodata_holdout <- select(ungroup(cryptodata_holdout, split, training), 
                             -split, -training)
# Show nested data
cryptodata_holdout
```

```
## # A tibble: 48 x 2
## # Groups:   symbol [48]
##    symbol holdout_data       
##    <chr>  <list>             
##  1 NUT    <tibble [81 × 11]> 
##  2 CUR    <tibble [94 × 11]> 
##  3 XMR    <tibble [115 × 11]>
##  4 BTC    <tibble [114 × 11]>
##  5 LTC    <tibble [113 × 11]>
##  6 ENJ    <tibble [112 × 11]>
##  7 EOS    <tibble [112 × 11]>
##  8 NEXO   <tibble [112 × 11]>
##  9 DCR    <tibble [112 × 11]>
## 10 BAT    <tibble [111 × 11]>
## # … with 38 more rows
```

### Join Results

Now we can take the results that we grouped for each subset [**cryptodata_train**]{style="color: blue;"}, [**cryptodata_test**]{style="color: blue;"}, and [**cryptodata_holdout**]{style="color: blue;"}, and we can [**join**]{style="color: purple;"} the results to have all three new columns [**train_data**]{style="color: blue;"}, [**test_data**]{style="color: blue;"}, and [**holdout_data**]{style="color: blue;"} in a single new dataframe, which we will call [**cryptodata_nested**]{style="color: blue;"}:


```r
# Join train and test
cryptodata_nested <- left_join(cryptodata_train, cryptodata_test, by = c("symbol", "split"))
# Show new data
cryptodata_nested
```

```
## # A tibble: 240 x 4
## # Groups:   symbol, split [240]
##    symbol split train_data          test_data          
##    <chr>  <dbl> <list>              <list>             
##  1 EOS        1 <tibble [348 × 11]> <tibble [109 × 11]>
##  2 BCH        1 <tibble [109 × 11]> <tibble [46 × 11]> 
##  3 NEO        1 <tibble [110 × 11]> <tibble [46 × 11]> 
##  4 EURS       1 <tibble [77 × 11]>  <tibble [45 × 11]> 
##  5 BTG        1 <tibble [323 × 11]> <tibble [105 × 11]>
##  6 DGB        1 <tibble [355 × 11]> <tibble [111 × 11]>
##  7 XUC        1 <tibble [94 × 11]>  <tibble [42 × 11]> 
##  8 LTC        1 <tibble [355 × 11]> <tibble [111 × 11]>
##  9 NUT        1 <tibble [230 × 11]> <tibble [78 × 11]> 
## 10 NEXO       1 <tibble [354 × 11]> <tibble [111 × 11]>
## # … with 230 more rows
```
…
```r
cryptodata_nested <- left_join(cryptodata_nested, cryptodata_holdout, by = "symbol")
```

Now we have our completed dataset that will allow us to iterate through each option and create many separate models as was [discussed throughout this section](#cross-validation): 


```r
cryptodata_nested
```

```
## # A tibble: 240 x 5
## # Groups:   symbol, split [240]
##    symbol split train_data          test_data           holdout_data       
##    <chr>  <dbl> <list>              <list>              <list>             
##  1 EOS        1 <tibble [348 × 11]> <tibble [109 × 11]> <tibble [112 × 11]>
##  2 BCH        1 <tibble [109 × 11]> <tibble [46 × 11]>  <tibble [50 × 11]> 
##  3 NEO        1 <tibble [110 × 11]> <tibble [46 × 11]>  <tibble [48 × 11]> 
##  4 EURS       1 <tibble [77 × 11]>  <tibble [45 × 11]>  <tibble [46 × 11]> 
##  5 BTG        1 <tibble [323 × 11]> <tibble [105 × 11]> <tibble [105 × 11]>
##  6 DGB        1 <tibble [355 × 11]> <tibble [111 × 11]> <tibble [111 × 11]>
##  7 XUC        1 <tibble [94 × 11]>  <tibble [42 × 11]>  <tibble [45 × 11]> 
##  8 LTC        1 <tibble [355 × 11]> <tibble [111 × 11]> <tibble [113 × 11]>
##  9 NUT        1 <tibble [230 × 11]> <tibble [78 × 11]>  <tibble [81 × 11]> 
## 10 NEXO       1 <tibble [354 × 11]> <tibble [111 × 11]> <tibble [112 × 11]>
## # … with 230 more rows
```
…
In the example above we used the [**cryptodata**]{style="color: blue;"} object which contained all the non-nested data, and was a big oversimplification of the process we will actually use. 

### Using Functional Programming {#using-functional-programming}

<!-- There are several approaches we could take in order to create the models [according to the plan outlined in the previous section](#model-validation-plan). As previously mentioned, the steps taken below use a similar approach to [the work published by Hadley Wickham on the subject](https://r4ds.had.co.nz/many-models.html) [@R_for_data_science]. Because this work is particularly well respected, we went with a methodology that uses [**functional programming**]{style="color: purple;"}. There are pros and cons to using different methods (i.e. a ***for loop***), and this tutorial itself was originally written using three different fundamentally different approaches before settling on a **functional programming** approach, which is a programming paradigm that focuses on the actions being taken, rather than focusing on  -->

From this point forward, we will deal with the new dataset [**cryptodata_nested**]{style="color: blue;"}, review the [previous section where it was created](#nest-data) if you missed it. Here is a preview of the data again:

```r
cryptodata_nested
```

```
## # A tibble: 240 x 5
## # Groups:   symbol, split [240]
##    symbol split train_data          test_data           holdout_data       
##    <chr>  <dbl> <list>              <list>              <list>             
##  1 EOS        1 <tibble [348 × 11]> <tibble [109 × 11]> <tibble [112 × 11]>
##  2 BCH        1 <tibble [109 × 11]> <tibble [46 × 11]>  <tibble [50 × 11]> 
##  3 NEO        1 <tibble [110 × 11]> <tibble [46 × 11]>  <tibble [48 × 11]> 
##  4 EURS       1 <tibble [77 × 11]>  <tibble [45 × 11]>  <tibble [46 × 11]> 
##  5 BTG        1 <tibble [323 × 11]> <tibble [105 × 11]> <tibble [105 × 11]>
##  6 DGB        1 <tibble [355 × 11]> <tibble [111 × 11]> <tibble [111 × 11]>
##  7 XUC        1 <tibble [94 × 11]>  <tibble [42 × 11]>  <tibble [45 × 11]> 
##  8 LTC        1 <tibble [355 × 11]> <tibble [111 × 11]> <tibble [113 × 11]>
##  9 NUT        1 <tibble [230 × 11]> <tibble [78 × 11]>  <tibble [81 × 11]> 
## 10 NEXO       1 <tibble [354 × 11]> <tibble [111 × 11]> <tibble [112 × 11]>
## # … with 230 more rows
```
…
