…
```r
cryptodata <- group_by(cryptodata, symbol)
```

Now if we run the same operation using the [**count()**]{style="color: green;"} function, the operation is performed grouped by the cryptocurrency symbol:


```r
count(cryptodata)
```

```
## # A tibble: 222 x 2
## # Groups:   symbol [222]
##    symbol     n
##    <chr>  <int>
##  1 AAB     1859
##  2 ACAT    1631
##  3 ACT     2303
##  4 ADA     2532
##  5 ADXN     917
##  6 ALGO     212
##  7 AMB     1088
##  8 AMM       15
##  9 APL       69
## 10 APPC    2329
## # … with 212 more rows
```
…
Now we can finally convert the table to a [**tsibble**]{style="color: blue;"} data type by using the [**as_tsibble()**]{style="color: green;"} function from the [**tsibble**]{style="color: #ae7b11;"} package [@R-tsibble], and providing the [**symbol**]{style="color: blue;"} column for the [**key**]{style="color: blue;"} parameter to preserve the grouped structure:   


```r
cryptodata <- as_tsibble(cryptodata, index = ts_index, key = symbol)
```

Notice how the preview of the data below looks a bit different from the summary we were seeing up to this point, and now it says "A tsibble", and next to the table dimensions says **[1h]**, indicating the observations are 1 hour apart from each other. The second row tells us the "Key" of the [**tsibble**]{style="color: blue;"} is the [**symbol**]{style="color: blue;"} column

```r
cryptodata
```

```
## # A tsibble: 180,013 x 34 [1h] <UTC>
## # Key:       symbol [80]
## # Groups:    symbol [80]
##    pair  symbol quote_currency ask_1_price ask_1_quantity ask_2_price
##    <chr> <chr>  <chr>                <dbl>          <dbl>       <dbl>
##  1 AABU… AAB    USD                  0.390           104.       0.39 
##  2 AABU… AAB    USD                  0.390           104.       0.39 
##  3 AABU… AAB    USD                  0.390           104.       0.39 
##  4 AABU… AAB    USD                  0.390           104.       0.39 
##  5 AABU… AAB    USD                  0.390           104.       0.39 
##  6 AABU… AAB    USD                  0.390           104.       0.39 
##  7 AABU… AAB    USD                  0.390           104.       0.39 
##  8 AABU… AAB    USD                  0.390           104.       0.390
##  9 AABU… AAB    USD                  0.390           104.       0.390
## 10 AABU… AAB    USD                  0.390           104.       0.390
## # … with 180,003 more rows, and 28 more variables: ask_2_quantity <dbl>,
## #   ask_3_price <dbl>, ask_3_quantity <dbl>, ask_4_price <dbl>,
## #   ask_4_quantity <dbl>, ask_5_price <dbl>, ask_5_quantity <dbl>,
## #   bid_1_price <dbl>, bid_1_quantity <dbl>, bid_2_price <dbl>,
## #   bid_2_quantity <dbl>, bid_3_price <dbl>, bid_3_quantity <dbl>,
## #   bid_4_price <dbl>, bid_4_quantity <dbl>, bid_5_price <dbl>,
## #   bid_5_quantity <dbl>, date_time_utc <dttm>, date <date>, pkDummy <chr>,
## #   pkey <chr>, trade_usd_1 <dbl>, trade_usd_2 <dbl>, trade_usd_3 <dbl>,
## #   trade_usd_4 <dbl>, trade_usd_5 <dbl>, price_usd <dbl>, ts_index <dttm>
```
…
```r
cryptodata <- fill_gaps(cryptodata)
```



Now looking at the data again, there are 17440 additional rows that were added as implicitly missing in the data:


```r
cryptodata
```

```
## # A tsibble: 197,453 x 34 [1h] <UTC>
## # Key:       symbol [80]
## # Groups:    symbol [80]
##    pair  symbol quote_currency ask_1_price ask_1_quantity ask_2_price
##    <chr> <chr>  <chr>                <dbl>          <dbl>       <dbl>
##  1 AABU… AAB    USD                  0.390           104.       0.39 
##  2 AABU… AAB    USD                  0.390           104.       0.39 
##  3 AABU… AAB    USD                  0.390           104.       0.39 
##  4 AABU… AAB    USD                  0.390           104.       0.39 
##  5 AABU… AAB    USD                  0.390           104.       0.39 
##  6 AABU… AAB    USD                  0.390           104.       0.39 
##  7 AABU… AAB    USD                  0.390           104.       0.39 
##  8 AABU… AAB    USD                  0.390           104.       0.390
##  9 <NA>  AAB    <NA>                NA                NA       NA    
## 10 AABU… AAB    USD                  0.390           104.       0.390
## # … with 197,443 more rows, and 28 more variables: ask_2_quantity <dbl>,
## #   ask_3_price <dbl>, ask_3_quantity <dbl>, ask_4_price <dbl>,
## #   ask_4_quantity <dbl>, ask_5_price <dbl>, ask_5_quantity <dbl>,
## #   bid_1_price <dbl>, bid_1_quantity <dbl>, bid_2_price <dbl>,
## #   bid_2_quantity <dbl>, bid_3_price <dbl>, bid_3_quantity <dbl>,
## #   bid_4_price <dbl>, bid_4_quantity <dbl>, bid_5_price <dbl>,
## #   bid_5_quantity <dbl>, date_time_utc <dttm>, date <date>, pkDummy <chr>,
## #   pkey <chr>, trade_usd_1 <dbl>, trade_usd_2 <dbl>, trade_usd_3 <dbl>,
## #   trade_usd_4 <dbl>, trade_usd_5 <dbl>, price_usd <dbl>, ts_index <dttm>
```
…
Let's view an example of the oldest 30 rows of data associated with the Bitcoin cryptocurrency (`symbol == "BTC"`). With the oldest data starting from the top, the [**lagged_price_1h**]{style="color: blue;"} field should have a NA value for the first row because we don't have any prices before that point. By that same logic, the [**lagged_price_24h**]{style="color: blue;"} column should be missing the first 24 values and have the last 6 values showing the first 6 rows of the [**price_usd**]{style="color: blue;"} column. The [**target_price_24h**]{style="color: blue;"} would values for the oldest data because the opposite is true and we don't know the values for data for the most recent 24 rows of the data:


```r
print(select(filter(cryptodata, symbol == 'BTC'), 
             ts_index, price_usd, lagged_price_1h, 
             lagged_price_24h, target_price_24h), n=30)
```

```
## # A tibble: 2,548 x 6
## # Groups:   symbol [1]
##    symbol ts_index            price_usd lagged_price_1h lagged_price_24h
##    <chr>  <dttm>                  <dbl>           <dbl>            <dbl>
##  1 BTC    2020-09-25 00:00:00    10732.             NA               NA 
##  2 BTC    2020-09-25 01:00:00    10704.          10732.              NA 
##  3 BTC    2020-09-25 02:00:00    10687.          10704.              NA 
##  4 BTC    2020-09-25 03:00:00    10712.          10687.              NA 
##  5 BTC    2020-09-25 04:00:00    10670.          10712.              NA 
##  6 BTC    2020-09-25 05:00:00    10671.          10670.              NA 
##  7 BTC    2020-09-25 06:00:00    10645.          10671.              NA 
##  8 BTC    2020-09-25 07:00:00    10691.          10645.              NA 
##  9 BTC    2020-09-25 08:00:00    10689.          10691.              NA 
## 10 BTC    2020-09-25 09:00:00    10590.          10689.              NA 
## 11 BTC    2020-09-25 10:00:00    10587.          10590.              NA 
## 12 BTC    2020-09-25 11:00:00    10592.          10587.              NA 
## 13 BTC    2020-09-25 12:00:00    10627.          10592.              NA 
## 14 BTC    2020-09-25 13:00:00    10617.          10627.              NA 
## 15 BTC    2020-09-25 14:00:00    10612.          10617.              NA 
## 16 BTC    2020-09-25 15:00:00    10606.          10612.              NA 
## 17 BTC    2020-09-25 16:00:00    10645.          10606.              NA 
## 18 BTC    2020-09-25 17:00:00    10642.          10645.              NA 
## 19 BTC    2020-09-25 18:00:00    10695.          10642.              NA 
## 20 BTC    2020-09-25 19:00:00    10710.          10695.              NA 
## 21 BTC    2020-09-25 20:00:00    10722.          10710.              NA 
## 22 BTC    2020-09-25 21:00:00    10709.          10722.              NA 
## 23 BTC    2020-09-25 22:00:00    10748.          10709.              NA 
## 24 BTC    2020-09-25 23:00:00    10695.          10748.              NA 
## 25 BTC    2020-09-26 00:00:00    10688.          10695.           10732.
## 26 BTC    2020-09-26 01:00:00    10647.          10688.           10704.
## 27 BTC    2020-09-26 02:00:00    10693.          10647.           10687.
## 28 BTC    2020-09-26 03:00:00    10715.          10693.           10712.
## 29 BTC    2020-09-26 04:00:00    10706.          10715.           10670.
## 30 BTC    2020-09-26 05:00:00    10730.          10706.           10671.
## # … with 2,518 more rows, and 1 more variable: target_price_24h <dbl>
```
…
Our data now has the new columns `training` (*train*, *test* or *holdout*) and `split` (numbers 1-5) added to it, let's take a look at the new columns:


```r
select(cryptodata, training, split)
```

```
## # A tibble: 180,013 x 3
## # Groups:   symbol [80]
##    symbol training split
##    <chr>  <chr>    <dbl>
##  1 BTC    train        1
##  2 LTC    train        1
##  3 XMR    train        1
##  4 ETH    train        1
##  5 IPL    train        1
##  6 ZEC    train        1
##  7 XEM    train        1
##  8 NEXO   train        1
##  9 APPC   train        1
## 10 EOS    train        1
## # … with 180,003 more rows
```
…
```r
find_zero_var <- select(mutate(cryptodata, min_sd = min(sd(price_usd, na.rm=T), 
                                                        sd(target_price_24h, na.rm=T),
                                                        sd(lagged_price_1h, na.rm=T), 
                                                        sd(lagged_price_2h, na.rm=T),
                                                        sd(lagged_price_3h, na.rm=T), 
                                                        sd(lagged_price_6h, na.rm=T),
                                                        sd(lagged_price_12h, na.rm=T), 
                                                        sd(lagged_price_24h, na.rm=T))), min_sd)
# Show data
find_zero_var
```

```
## # A tibble: 180,013 x 4
## # Groups:   symbol, split, training [800]
##    symbol split training      min_sd
##    <chr>  <dbl> <chr>          <dbl>
##  1 BTC        1 train    194.       
##  2 LTC        1 train      1.04     
##  3 XMR        1 train      7.32     
##  4 ETH        1 train     12.7      
##  5 IPL        1 train      0.000139 
##  6 ZEC        1 train      2.03     
##  7 XEM        1 train      0.00323  
##  8 NEXO       1 train      0.00588  
##  9 APPC       1 train      0.0000454
## 10 EOS        1 train      0.0638   
## # … with 180,003 more rows
```
…
<!-- ```{r group_for_nest} -->
<!-- cryptodata <- group_by(cryptodata, symbol, split, training) -->
<!-- ``` -->

Here is an example of what happens when we [**nest()**]{style="color: green;"} the data:


```r
nest(cryptodata) 
```

```
## # A tibble: 520 x 4
## # Groups:   symbol, training, split [520]
##    symbol training split data               
##    <chr>  <chr>    <dbl> <list>             
##  1 BTC    train        1 <tibble [407 × 11]>
##  2 LTC    train        1 <tibble [406 × 11]>
##  3 XMR    train        1 <tibble [404 × 11]>
##  4 ETH    train        1 <tibble [383 × 11]>
##  5 ZEC    train        1 <tibble [332 × 11]>
##  6 XEM    train        1 <tibble [389 × 11]>
##  7 NEXO   train        1 <tibble [407 × 11]>
##  8 EOS    train        1 <tibble [399 × 11]>
##  9 ELF    train        1 <tibble [381 × 11]>
## 10 BNT    train        1 <tibble [384 × 11]>
## # … with 510 more rows
```
…
```{.scroll-lim}
## # A tibble: 260 x 3
## # Groups:   symbol, split [260]
##    symbol split train_data         
##    <chr>  <dbl> <list>             
##  1 BTC        1 <tibble [335 × 11]>
##  2 LTC        1 <tibble [334 × 11]>
##  3 XMR        1 <tibble [331 × 11]>
##  4 ETH        1 <tibble [39 × 11]> 
##  5 ZEC        1 <tibble [232 × 11]>
##  6 XEM        1 <tibble [57 × 11]> 
##  7 NEXO       1 <tibble [335 × 11]>
##  8 EOS        1 <tibble [327 × 11]>
##  9 ELF        1 <tibble [62 × 11]> 
## 10 BNT        1 <tibble [68 × 11]> 
## # … with 250 more rows
```
…
```r
cryptodata_test <- select(rename(nest(filter(cryptodata, 
                                             training=='test')), 
                                 test_data = 'data'), 
                          -training)
# Now remove training column
cryptodata_test <- select(ungroup(cryptodata_test, 
                                  training), 
                          -training)
# Show nested data
cryptodata_test
```

```
## # A tibble: 208 x 3
## # Groups:   symbol, split [208]
##    symbol split test_data          
##    <chr>  <dbl> <list>             
##  1 XRP        1 <tibble [55 × 11]> 
##  2 QTUM       1 <tibble [51 × 11]> 
##  3 NUT        1 <tibble [67 × 11]> 
##  4 AAB        1 <tibble [75 × 11]> 
##  5 VIB        1 <tibble [71 × 11]> 
##  6 SRN        1 <tibble [94 × 11]> 
##  7 TRX        1 <tibble [100 × 11]>
##  8 EOS        1 <tibble [100 × 11]>
##  9 KNC        1 <tibble [96 × 11]> 
## 10 OAX        1 <tibble [101 × 11]>
## # … with 198 more rows
```
…
```r
cryptodata_holdout <- rename(nest(filter(cryptodata, 
                                         training=='holdout')), 
                             holdout_data = 'data')
# Remove split and training columns from holdout
cryptodata_holdout <- select(ungroup(cryptodata_holdout, split, training), 
                             -split, -training)
# Show nested data
cryptodata_holdout
```

```
## # A tibble: 52 x 2
## # Groups:   symbol [52]
##    symbol holdout_data       
##    <chr>  <list>             
##  1 VIB    <tibble [71 × 11]> 
##  2 SRN    <tibble [98 × 11]> 
##  3 DGB    <tibble [104 × 11]>
##  4 ZRX    <tibble [102 × 11]>
##  5 DCR    <tibble [104 × 11]>
##  6 LTC    <tibble [105 × 11]>
##  7 BSV    <tibble [105 × 11]>
##  8 BAT    <tibble [102 × 11]>
##  9 MANA   <tibble [105 × 11]>
## 10 JST    <tibble [102 × 11]>
## # … with 42 more rows
```

### Join Results

Now we can take the results that we grouped for each subset [**cryptodata_train**]{style="color: blue;"}, [**cryptodata_test**]{style="color: blue;"}, and [**cryptodata_holdout**]{style="color: blue;"}, and we can [**join**]{style="color: purple;"} the results to have all three new columns [**train_data**]{style="color: blue;"}, [**test_data**]{style="color: blue;"}, and [**holdout_data**]{style="color: blue;"} in a single new dataframe, which we will call [**cryptodata_nested**]{style="color: blue;"}:


```r
# Join train and test
cryptodata_nested <- left_join(cryptodata_train, cryptodata_test, by = c("symbol", "split"))
# Show new data
cryptodata_nested
```

```
## # A tibble: 260 x 4
## # Groups:   symbol, split [260]
##    symbol split train_data          test_data          
##    <chr>  <dbl> <list>              <list>             
##  1 BTC        1 <tibble [335 × 11]> <tibble [102 × 11]>
##  2 LTC        1 <tibble [334 × 11]> <tibble [102 × 11]>
##  3 XMR        1 <tibble [331 × 11]> <tibble [102 × 11]>
##  4 ETH        1 <tibble [39 × 11]>  <tibble [96 × 11]> 
##  5 ZEC        1 <tibble [232 × 11]> <tibble [84 × 11]> 
##  6 XEM        1 <tibble [57 × 11]>  <tibble [98 × 11]> 
##  7 NEXO       1 <tibble [335 × 11]> <tibble [102 × 11]>
##  8 EOS        1 <tibble [327 × 11]> <tibble [100 × 11]>
##  9 ELF        1 <tibble [62 × 11]>  <tibble [96 × 11]> 
## 10 BNT        1 <tibble [68 × 11]>  <tibble [96 × 11]> 
## # … with 250 more rows
```
…
```r
cryptodata_nested <- left_join(cryptodata_nested, cryptodata_holdout, by = "symbol")
```

Now we have our completed dataset that will allow us to iterate through each option and create many separate models as was [discussed throughout this section](#cross-validation): 


```r
cryptodata_nested
```

```
## # A tibble: 260 x 5
## # Groups:   symbol, split [260]
##    symbol split train_data          test_data           holdout_data       
##    <chr>  <dbl> <list>              <list>              <list>             
##  1 BTC        1 <tibble [335 × 11]> <tibble [102 × 11]> <tibble [102 × 11]>
##  2 LTC        1 <tibble [334 × 11]> <tibble [102 × 11]> <tibble [105 × 11]>
##  3 XMR        1 <tibble [331 × 11]> <tibble [102 × 11]> <tibble [103 × 11]>
##  4 ETH        1 <tibble [39 × 11]>  <tibble [96 × 11]>  <tibble [97 × 11]> 
##  5 ZEC        1 <tibble [232 × 11]> <tibble [84 × 11]>  <tibble [88 × 11]> 
##  6 XEM        1 <tibble [57 × 11]>  <tibble [98 × 11]>  <tibble [101 × 11]>
##  7 NEXO       1 <tibble [335 × 11]> <tibble [102 × 11]> <tibble [103 × 11]>
##  8 EOS        1 <tibble [327 × 11]> <tibble [100 × 11]> <tibble [104 × 11]>
##  9 ELF        1 <tibble [62 × 11]>  <tibble [96 × 11]>  <tibble [96 × 11]> 
## 10 BNT        1 <tibble [68 × 11]>  <tibble [96 × 11]>  <tibble [99 × 11]> 
## # … with 250 more rows
```
…
In the example above we used the [**cryptodata**]{style="color: blue;"} object which contained all the non-nested data, and was a big oversimplification of the process we will actually use. 

### Using Functional Programming {#using-functional-programming}

<!-- There are several approaches we could take in order to create the models [according to the plan outlined in the previous section](#model-validation-plan). As previously mentioned, the steps taken below use a similar approach to [the work published by Hadley Wickham on the subject](https://r4ds.had.co.nz/many-models.html) [@R_for_data_science]. Because this work is particularly well respected, we went with a methodology that uses [**functional programming**]{style="color: purple;"}. There are pros and cons to using different methods (i.e. a ***for loop***), and this tutorial itself was originally written using three different fundamentally different approaches before settling on a **functional programming** approach, which is a programming paradigm that focuses on the actions being taken, rather than focusing on  -->

From this point forward, we will deal with the new dataset [**cryptodata_nested**]{style="color: blue;"}, review the [previous section where it was created](#nest-data) if you missed it. Here is a preview of the data again:

```r
cryptodata_nested
```

```
## # A tibble: 260 x 5
## # Groups:   symbol, split [260]
##    symbol split train_data          test_data           holdout_data       
##    <chr>  <dbl> <list>              <list>              <list>             
##  1 BTC        1 <tibble [335 × 11]> <tibble [102 × 11]> <tibble [102 × 11]>
##  2 LTC        1 <tibble [334 × 11]> <tibble [102 × 11]> <tibble [105 × 11]>
##  3 XMR        1 <tibble [331 × 11]> <tibble [102 × 11]> <tibble [103 × 11]>
##  4 ETH        1 <tibble [39 × 11]>  <tibble [96 × 11]>  <tibble [97 × 11]> 
##  5 ZEC        1 <tibble [232 × 11]> <tibble [84 × 11]>  <tibble [88 × 11]> 
##  6 XEM        1 <tibble [57 × 11]>  <tibble [98 × 11]>  <tibble [101 × 11]>
##  7 NEXO       1 <tibble [335 × 11]> <tibble [102 × 11]> <tibble [103 × 11]>
##  8 EOS        1 <tibble [327 × 11]> <tibble [100 × 11]> <tibble [104 × 11]>
##  9 ELF        1 <tibble [62 × 11]>  <tibble [96 × 11]>  <tibble [96 × 11]> 
## 10 BNT        1 <tibble [68 × 11]>  <tibble [96 × 11]>  <tibble [99 × 11]> 
## # … with 250 more rows
```
…
