Section - 4 Data Prep | Cryptocurrency Research
…
But what if we wanted to know how many observations in the data are associated with each cryptocurrency separately?

We can group the data using the group_by() function from the dplyr package and group the data by the cryptocurrency symbol:

cryptodata <- group_by(cryptodata, symbol)

Now if we run the same operation using the count() function, the operation is performed grouped by the cryptocurrency symbol:

count(cryptodata)

## # A tibble: 299 x 2
## # Groups:   symbol [299]
##    symbol     n
##    <chr>  <int>
##  1 1INCH   1181
##  2 AAB     1242
##  3 ACAT    1195
##  4 ACH      251
##  5 ACM     1224
##  6 ACT     1785
##  7 ADA     1806
##  8 ALGO     623
##  9 ALICE   1220
## 10 ALPHA   1176
## # ... with 289 more rows
…
cryptodata <- mutate(cryptodata, ts_index = anytime(paste0(pkDummy,':00:00')))

Before we can convert the data to be a tsibble and easily fill in the gaps, we also need to make sure there are no duplicate values in the ts_index column for each cryptocurrency. There shouldn’t be any duplicates, but just in case any make their way into the data somehow, we can use the distinct() function from the dplyr package to prevent the issue from potentially arising:

cryptodata <- distinct(cryptodata, symbol, ts_index, .keep_all=TRUE)

Now we can finally convert the table to a tsibble data type by using the as_tsibble() function from the tsibble package (Wang et al. 2020), and providing the symbol column for the key parameter to preserve the grouped structure:

cryptodata <- as_tsibble(cryptodata, index = ts_index, key = symbol)

Notice how the preview of the data below looks a bit different from the summary we were seeing up to this point, and now it says “A tsibble”, and next to the table dimensions says [1h], indicating the observations are 1 hour apart from each other. The second row tells us the “Key” of the tsibble is the symbol column

cryptodata

## # A tsibble: 147,755 x 34 [1h] <UTC>
## # Key:       symbol [98]
## # Groups:    symbol [98]
##    pair  symbol quote_currency ask_1_price ask_1_quantity ask_2_price
##    <chr> <chr>  <chr>                <dbl>          <dbl>       <dbl>
##  1 1INC~ 1INCH  USD                   3.35          104.         3.35
##  2 1INC~ 1INCH  USD                   3.49          104.         3.49
##  3 1INC~ 1INCH  USD                   3.51          124.         3.51
##  4 1INC~ 1INCH  USD                   3.68          104.         3.68
##  5 1INC~ 1INCH  USD                   3.66          104.         3.66
##  6 1INC~ 1INCH  USD                   3.79          104.         3.79
##  7 1INC~ 1INCH  USD                   3.97            0.2        3.97
##  8 1INC~ 1INCH  USD                   4.08          102.         4.08
##  9 1INC~ 1INCH  USD                   3.98            0.3        3.98
## 10 1INC~ 1INCH  USD                   3.96          102.         3.96
## # ... with 147,745 more rows, and 28 more variables: ask_2_quantity <dbl>,
## #   ask_3_price <dbl>, ask_3_quantity <dbl>, ask_4_price <dbl>,
## #   ask_4_quantity <dbl>, ask_5_price <dbl>, ask_5_quantity <dbl>,
## #   bid_1_price <dbl>, bid_1_quantity <dbl>, bid_2_price <dbl>,
## #   bid_2_quantity <dbl>, bid_3_price <dbl>, bid_3_quantity <dbl>,
## #   bid_4_price <dbl>, bid_4_quantity <dbl>, bid_5_price <dbl>,
## #   bid_5_quantity <dbl>, date_time_utc <dttm>, date <date>, pkDummy <chr>,
## #   pkey <chr>, trade_usd_1 <dbl>, trade_usd_2 <dbl>, trade_usd_3 <dbl>,
## #   trade_usd_4 <dbl>, trade_usd_5 <dbl>, price_usd <dbl>, ts_index <dttm>

4.4.2 Fill gaps

Now we can use the fill_gaps() function from the tsibble package to fill any gaps found in the data, as being implicitly Null. Meaning, we will add these rows into the data with NA values for everything except for the date time field. This will allow us to safely compute the target price found 24 hours into the future relative to when each row was collected.

cryptodata <- fill_gaps(cryptodata)

Now looking at the data again, there are 23828 additional rows that were added as implicitly missing in the data:

cryptodata

## # A tsibble: 171,583 x 34 [1h] <UTC>
## # Key:       symbol [98]
## # Groups:    symbol [98]
##    pair  symbol quote_currency ask_1_price ask_1_quantity ask_2_price
##    <chr> <chr>  <chr>                <dbl>          <dbl>       <dbl>
##  1 1INC~ 1INCH  USD                   3.35           104.        3.35
##  2 1INC~ 1INCH  USD                   3.49           104.        3.49
##  3 1INC~ 1INCH  USD                   3.51           124.        3.51
##  4 <NA>  1INCH  <NA>                 NA               NA        NA   
##  5 <NA>  1INCH  <NA>                 NA               NA        NA   
##  6 <NA>  1INCH  <NA>                 NA               NA        NA   
##  7 <NA>  1INCH  <NA>                 NA               NA        NA   
##  8 <NA>  1INCH  <NA>                 NA               NA        NA   
##  9 <NA>  1INCH  <NA>                 NA               NA        NA   
## 10 <NA>  1INCH  <NA>                 NA               NA        NA   
## # ... with 171,573 more rows, and 28 more variables: ask_2_quantity <dbl>,
## #   ask_3_price <dbl>, ask_3_quantity <dbl>, ask_4_price <dbl>,
## #   ask_4_quantity <dbl>, ask_5_price <dbl>, ask_5_quantity <dbl>,
## #   bid_1_price <dbl>, bid_1_quantity <dbl>, bid_2_price <dbl>,
## #   bid_2_quantity <dbl>, bid_3_price <dbl>, bid_3_quantity <dbl>,
## #   bid_4_price <dbl>, bid_4_quantity <dbl>, bid_5_price <dbl>,
## #   bid_5_quantity <dbl>, date_time_utc <dttm>, date <date>, pkDummy <chr>,
## #   pkey <chr>, trade_usd_1 <dbl>, trade_usd_2 <dbl>, trade_usd_3 <dbl>,
## #   trade_usd_4 <dbl>, trade_usd_5 <dbl>, price_usd <dbl>, ts_index <dttm>
…
This step can be thought of as data engineering more than data cleaning, because rather than fixing an issue we are enhancing the dataset with columns that may help with the forecasts.

Let’s view an example of the oldest 30 rows of data associated with the Bitcoin cryptocurrency (symbol == "BTC"). With the oldest data starting from the top, the lagged_price_1h field should have a NA value for the first row because we don’t have any prices before that point. By that same logic, the lagged_price_24h column should be missing the first 24 values and have the last 6 values showing the first 6 rows of the price_usd column. The target_price_24h would values for the oldest data because the opposite is true and we don’t know the values for data for the most recent 24 rows of the data:

print(select(filter(cryptodata, symbol == 'BTC'), 
             ts_index, price_usd, lagged_price_1h, 
             lagged_price_24h, target_price_24h), n=30)

## # A tibble: 1,827 x 6
## # Groups:   symbol [1]
##    symbol ts_index            price_usd lagged_price_1h lagged_price_24h
##    <chr>  <dttm>                  <dbl>           <dbl>            <dbl>
##  1 BTC    2021-06-05 00:00:00    36840.             NA               NA 
##  2 BTC    2021-06-05 01:00:00    37693.          36840.              NA 
##  3 BTC    2021-06-05 02:00:00    37703.          37693.              NA 
##  4 BTC    2021-06-05 03:00:00    37652.          37703.              NA 
##  5 BTC    2021-06-05 04:00:00       NA           37652.              NA 
##  6 BTC    2021-06-05 05:00:00       NA              NA               NA 
##  7 BTC    2021-06-05 06:00:00       NA              NA               NA 
##  8 BTC    2021-06-05 07:00:00       NA              NA               NA 
##  9 BTC    2021-06-05 08:00:00       NA              NA               NA 
## 10 BTC    2021-06-05 09:00:00       NA              NA               NA 
## 11 BTC    2021-06-05 10:00:00       NA              NA               NA 
## 12 BTC    2021-06-05 11:00:00       NA              NA               NA 
## 13 BTC    2021-06-05 12:00:00       NA              NA               NA 
## 14 BTC    2021-06-05 13:00:00       NA              NA               NA 
## 15 BTC    2021-06-05 14:00:00       NA              NA               NA 
## 16 BTC    2021-06-05 15:00:00       NA              NA               NA 
## 17 BTC    2021-06-05 16:00:00       NA              NA               NA 
## 18 BTC    2021-06-05 17:00:00       NA              NA               NA 
## 19 BTC    2021-06-05 18:00:00       NA              NA               NA 
## 20 BTC    2021-06-05 19:00:00       NA              NA               NA 
## 21 BTC    2021-06-05 20:00:00       NA              NA               NA 
## 22 BTC    2021-06-05 21:00:00       NA              NA               NA 
## 23 BTC    2021-06-05 22:00:00       NA              NA               NA 
## 24 BTC    2021-06-05 23:00:00       NA              NA               NA 
## 25 BTC    2021-06-06 00:00:00    35503.             NA            36840.
## 26 BTC    2021-06-06 01:00:00    35568.          35503.           37693.
## 27 BTC    2021-06-06 02:00:00    36218.          35568.           37703.
## 28 BTC    2021-06-06 03:00:00    36124.          36218.           37652.
## 29 BTC    2021-06-06 04:00:00    36001.          36124.              NA 
## 30 BTC    2021-06-06 05:00:00    36091.          36001.              NA 
## # ... with 1,797 more rows, and 1 more variable: target_price_24h <dbl>
…
