Section - 8 Evaluate Model Performance | Cryptocurrency Research
…
  postResample(pred = predictions, obs = actuals)[[2]]

}

cryptodata_nested <- mutate(cryptodata_nested,
                            lm_rsq_test = unlist(ifelse(split < 5,
                                                         map2(lm_test_predictions, actuals_test, evaluate_preds_rsq),
                                                         NA)),
                            lm_rsq_holdout = unlist(map2(lm_holdout_predictions, actuals_holdout, evaluate_preds_rsq)))

Look at the results:

select(cryptodata_nested, lm_rsq_test, lm_rsq_holdout)

## # A tibble: 340 x 4
## # Groups:   symbol, split [340]
##    symbol split lm_rsq_test lm_rsq_holdout
##    <chr>  <dbl>       <dbl>          <dbl>
##  1 BTC        1    0.130           0.895  
##  2 ETH        1    0.503           0.760  
##  3 EOS        1    0.144           0.619  
##  4 LTC        1    0.320           0.595  
##  5 BSV        1    0.270           0.627  
##  6 ADA        1    0.418           0.00292
##  7 ZEC        1    0.662           0.760  
##  8 HT         1    0.000266        0.871  
##  9 TRX        1    0.251           0.189  
## 10 KNC        1    0.706           0.680  
## # ... with 330 more rows
…
Now we have RMSE and \(R^2\) values for every model created for every cryptocurrency and split of the data:

select(cryptodata_nested, lm_rmse_test, lm_rsq_test, lm_rmse_holdout, lm_rsq_holdout)

## # A tibble: 340 x 6
## # Groups:   symbol, split [340]
##    symbol split lm_rmse_test lm_rsq_test lm_rmse_holdout lm_rsq_holdout
##    <chr>  <dbl>        <dbl>       <dbl>           <dbl>          <dbl>
##  1 BTC        1        1.57     0.130              0.778        0.895  
##  2 ETH        1        1.23     0.503              1.11         0.760  
##  3 EOS        1        2.39     0.144              1.07         0.619  
##  4 LTC        1        2.63     0.320              0.970        0.595  
##  5 BSV        1        1.30     0.270              1.02         0.627  
##  6 ADA        1        1.21     0.418              1.19         0.00292
##  7 ZEC        1        3.73     0.662              1.02         0.760  
##  8 HT         1        4.31     0.000266           1.18         0.871  
##  9 TRX        1        0.965    0.251              1.06         0.189  
## 10 KNC        1        1.35     0.706              0.897        0.680  
## # ... with 330 more rows
…
rmse_test <- mutate(cryptodata_metrics,
                      lm = mean(lm_rmse_test, na.rm = T),
                      xgb = mean(xgb_rmse_test, na.rm = T),
                      nnet = mean(nnet_rmse_test, na.rm = T),
                      rf = mean(rf_rmse_test, na.rm = T),
                      pcr = mean(pcr_rmse_test, na.rm = T))

Now we can use the gather() function to summarize the columns as rows:

rmse_test <- unique(gather(select(rmse_test, lm:pcr), 'model', 'rmse', -symbol))
# Show results
rmse_test

## # A tibble: 340 x 3
## # Groups:   symbol [68]
##    symbol model  rmse
##    <chr>  <chr> <dbl>
##  1 BTC    lm    0.901
##  2 ETH    lm    1.24 
##  3 EOS    lm    1.44 
##  4 LTC    lm    1.59 
##  5 BSV    lm    1.88 
##  6 ADA    lm    1.41 
##  7 ZEC    lm    2.06 
##  8 HT     lm    2.47 
##  9 TRX    lm    1.38 
## 10 KNC    lm    1.54 
## # ... with 330 more rows
…
rmse_holdout <- mutate(cryptodata_metrics,
                      lm = mean(lm_rmse_holdout, na.rm = T),
                      xgb = mean(xgb_rmse_holdout, na.rm = T),
                      nnet = mean(nnet_rmse_holdout, na.rm = T),
                      rf = mean(rf_rmse_holdout, na.rm = T),
                      pcr = mean(pcr_rmse_holdout, na.rm = T))

Again, use the gather() function to summarize the columns as rows:

rmse_holdout <- unique(gather(select(rmse_holdout, lm:pcr), 'model', 'rmse', -symbol))
# Show results
rmse_holdout

## # A tibble: 340 x 3
## # Groups:   symbol [68]
##    symbol model  rmse
##    <chr>  <chr> <dbl>
##  1 BTC    lm    0.778
##  2 ETH    lm    1.11 
##  3 EOS    lm    1.07 
##  4 LTC    lm    0.970
##  5 BSV    lm    1.02 
##  6 ADA    lm    1.19 
##  7 ZEC    lm    1.02 
##  8 HT     lm    1.18 
##  9 TRX    lm    1.06 
## 10 KNC    lm    0.897
## # ... with 330 more rows
…
rsq_test <- mutate(cryptodata_metrics,
                      lm = mean(lm_rsq_test, na.rm = T),
                      xgb = mean(xgb_rsq_test, na.rm = T),
                      nnet = mean(nnet_rsq_test, na.rm = T),
                      rf = mean(rf_rsq_test, na.rm = T),
                      pcr = mean(pcr_rsq_test, na.rm = T))

Now we can use the gather() function to summarize the columns as rows:

rsq_test <- unique(gather(select(rsq_test, lm:pcr), 'model', 'rsq', -symbol))
# Show results
rsq_test

## # A tibble: 340 x 3
## # Groups:   symbol [68]
##    symbol model   rsq
##    <chr>  <chr> <dbl>
##  1 BTC    lm    0.595
##  2 ETH    lm    0.528
##  3 EOS    lm    0.636
##  4 LTC    lm    0.641
##  5 BSV    lm    0.616
##  6 ADA    lm    0.312
##  7 ZEC    lm    0.540
##  8 HT     lm    0.358
##  9 TRX    lm    0.282
## 10 KNC    lm    0.661
## # ... with 330 more rows
…
rsq_holdout <- mutate(cryptodata_metrics,
                      lm = mean(lm_rsq_holdout, na.rm = T),
                      xgb = mean(xgb_rsq_holdout, na.rm = T),
                      nnet = mean(nnet_rsq_holdout, na.rm = T),
                      rf = mean(rf_rsq_holdout, na.rm = T),
                      pcr = mean(pcr_rsq_holdout, na.rm = T))

Now we can use the gather() function to summarize the columns as rows:

rsq_holdout <- unique(gather(select(rsq_holdout, lm:pcr), 'model', 'rsq', -symbol))
# Show results
rsq_holdout

## # A tibble: 340 x 3
## # Groups:   symbol [68]
##    symbol model     rsq
##    <chr>  <chr>   <dbl>
##  1 BTC    lm    0.895  
##  2 ETH    lm    0.760  
##  3 EOS    lm    0.619  
##  4 LTC    lm    0.595  
##  5 BSV    lm    0.627  
##  6 ADA    lm    0.00292
##  7 ZEC    lm    0.760  
##  8 HT     lm    0.871  
##  9 TRX    lm    0.189  
## 10 KNC    lm    0.680  
## # ... with 330 more rows
…
8.9.2.1 Summarize the data

# First create grouped data
predictable_cryptos <- group_by(metrics_historical, symbol, eval_set)
# Now summarize the data
predictable_cryptos <- summarize(predictable_cryptos,
                         rmse = mean(rmse, na.rm=T),
                         rsq  = mean(rsq, na.rm=T))
# Arrange from most predictable (according to R^2) to least 
predictable_cryptos <- arrange(predictable_cryptos, desc(rsq))
# Show results
predictable_cryptos

## # A tibble: 178 x 4
## # Groups:   symbol [89]
##    symbol eval_set  rmse   rsq
##    <chr>  <chr>    <dbl> <dbl>
##  1 NAV    test      3.30 0.434
##  2 POA    holdout   4.60 0.423
##  3 CUR    holdout   6.09 0.410
##  4 CND    test      1.84 0.374
##  5 CND    holdout   5.24 0.360
##  6 SEELE  holdout   8.88 0.355
##  7 ADXN   test      9.26 0.348
##  8 RCN    test      5.03 0.337
##  9 BTC    test      1.32 0.331
## 10 SUN    holdout   3.17 0.330
## # ... with 168 more rows
…
# First create grouped data
accuracy_over_time <- group_by(metrics_historical, date_utc)
# Now summarize the data
accuracy_over_time <- summarize(accuracy_over_time, 
                                rmse = mean(rmse, na.rm=T),
                                rsq  = mean(rsq, na.rm=T))
# Ungroup data
accuracy_over_time <- ungroup(accuracy_over_time)
# Convert date/time
accuracy_over_time$date_utc <- anytime(accuracy_over_time$date_utc)
# Show results
accuracy_over_time

## # A tibble: 30 x 3
##    date_utc             rmse   rsq
##    <dttm>              <dbl> <dbl>
##  1 2021-01-12 00:00:00  4.05 0.241
##  2 2021-01-13 00:00:00  4.29 0.236
##  3 2021-01-14 00:00:00  4.06 0.251
##  4 2021-01-16 00:00:00  4.25 0.214
##  5 2021-01-17 00:00:00  3.78 0.199
##  6 2021-01-18 00:00:00  3.88 0.212
##  7 2021-01-19 00:00:00  3.86 0.204
##  8 2021-01-20 00:00:00  4.65 0.207
##  9 2021-01-21 00:00:00  3.41 0.222
## 10 2021-01-22 00:00:00  4.05 0.231
## # ... with 20 more rows
…
