Section - 4 Data Prep | Cryptocurrency Research
…
But what if we wanted to know how many observations in the data are associated with each cryptocurrency separately?

We can group the data using the group_by() function from the dplyr package and group the data by the cryptocurrency symbol:

cryptodata <- group_by(cryptodata, symbol)

Now if we run the same operation using the count() function, the operation is performed grouped by the cryptocurrency symbol:

count(cryptodata)

## # A tibble: 223 x 2
## # Groups:   symbol [223]
##    symbol     n
##    <chr>  <int>
##  1 1INCH    692
##  2 AAB      110
##  3 AAVE     692
##  4 ACAT     671
##  5 ACT     1924
##  6 ADA     2263
##  7 ADXN    1380
##  8 AKRO     405
##  9 ALPHA    376
## 10 AMB     1552
## # ... with 213 more rows
…
cryptodata <- mutate(cryptodata, ts_index = anytime(paste0(pkDummy,':00:00')))

Before we can convert the data to be a tsibble and easily fill in the gaps, we also need to make sure there are no duplicate values in the ts_index column for each cryptocurrency. There shouldn’t be any duplicates, but just in case any make their way into the data somehow, we can use the distinct() function from the dplyr package to prevent the issue from potentially arising:

cryptodata <- distinct(cryptodata, symbol, ts_index, .keep_all=TRUE)

Now we can finally convert the table to a tsibble data type by using the as_tsibble() function from the tsibble package (Wang et al. 2020), and providing the symbol column for the key parameter to preserve the grouped structure:

cryptodata <- as_tsibble(cryptodata, index = ts_index, key = symbol)

Notice how the preview of the data below looks a bit different from the summary we were seeing up to this point, and now it says “A tsibble”, and next to the table dimensions says [1h], indicating the observations are 1 hour apart from each other. The second row tells us the “Key” of the tsibble is the symbol column

cryptodata

## # A tsibble: 237,703 x 34 [1h] <UTC>
## # Key:       symbol [131]
## # Groups:    symbol [131]
##    pair  symbol quote_currency ask_1_price ask_1_quantity ask_2_price
##    <chr> <chr>  <chr>                <dbl>          <dbl>       <dbl>
##  1 ACTU~ ACT    USD                0.00709           2820     0.00709
##  2 ACTU~ ACT    USD                0.00709           2680     0.00709
##  3 ACTU~ ACT    USD                0.00709          52500     0.00786
##  4 ACTU~ ACT    USD                0.00709          52500     0.00786
##  5 ACTU~ ACT    USD                0.00709           7020     0.00709
##  6 ACTU~ ACT    USD                0.00709          52500     0.00786
##  7 ACTU~ ACT    USD                0.00709          52500     0.00786
##  8 ACTU~ ACT    USD                0.00709          52500     0.00786
##  9 ACTU~ ACT    USD                0.00709           7020     0.00709
## 10 ACTU~ ACT    USD                0.00709           7020     0.00709
## # ... with 237,693 more rows, and 28 more variables: ask_2_quantity <dbl>,
## #   ask_3_price <dbl>, ask_3_quantity <dbl>, ask_4_price <dbl>,
## #   ask_4_quantity <dbl>, ask_5_price <dbl>, ask_5_quantity <dbl>,
## #   bid_1_price <dbl>, bid_1_quantity <dbl>, bid_2_price <dbl>,
## #   bid_2_quantity <dbl>, bid_3_price <dbl>, bid_3_quantity <dbl>,
## #   bid_4_price <dbl>, bid_4_quantity <dbl>, bid_5_price <dbl>,
## #   bid_5_quantity <dbl>, date_time_utc <dttm>, date <date>, pkDummy <chr>,
## #   pkey <chr>, trade_usd_1 <dbl>, trade_usd_2 <dbl>, trade_usd_3 <dbl>,
## #   trade_usd_4 <dbl>, trade_usd_5 <dbl>, price_usd <dbl>, ts_index <dttm>

4.4.2 Fill gaps

Now we can use the fill_gaps() function from the tsibble package to fill any gaps found in the data, as being implicitly Null. Meaning, we will add these rows into the data with NA values for everything except for the date time field. This will allow us to safely compute the target price found 24 hours into the future relative to when each row was collected.

cryptodata <- fill_gaps(cryptodata)

Now looking at the data again, there are 25629 additional rows that were added as implicitly missing in the data:

cryptodata

## # A tsibble: 263,332 x 34 [1h] <UTC>
## # Key:       symbol [131]
## # Groups:    symbol [131]
##    pair  symbol quote_currency ask_1_price ask_1_quantity ask_2_price
##    <chr> <chr>  <chr>                <dbl>          <dbl>       <dbl>
##  1 ACTU~ ACT    USD                0.00709           2820     0.00709
##  2 ACTU~ ACT    USD                0.00709           2680     0.00709
##  3 ACTU~ ACT    USD                0.00709          52500     0.00786
##  4 ACTU~ ACT    USD                0.00709          52500     0.00786
##  5 ACTU~ ACT    USD                0.00709           7020     0.00709
##  6 ACTU~ ACT    USD                0.00709          52500     0.00786
##  7 ACTU~ ACT    USD                0.00709          52500     0.00786
##  8 ACTU~ ACT    USD                0.00709          52500     0.00786
##  9 ACTU~ ACT    USD                0.00709           7020     0.00709
## 10 ACTU~ ACT    USD                0.00709           7020     0.00709
## # ... with 263,322 more rows, and 28 more variables: ask_2_quantity <dbl>,
## #   ask_3_price <dbl>, ask_3_quantity <dbl>, ask_4_price <dbl>,
## #   ask_4_quantity <dbl>, ask_5_price <dbl>, ask_5_quantity <dbl>,
## #   bid_1_price <dbl>, bid_1_quantity <dbl>, bid_2_price <dbl>,
## #   bid_2_quantity <dbl>, bid_3_price <dbl>, bid_3_quantity <dbl>,
## #   bid_4_price <dbl>, bid_4_quantity <dbl>, bid_5_price <dbl>,
## #   bid_5_quantity <dbl>, date_time_utc <dttm>, date <date>, pkDummy <chr>,
## #   pkey <chr>, trade_usd_1 <dbl>, trade_usd_2 <dbl>, trade_usd_3 <dbl>,
## #   trade_usd_4 <dbl>, trade_usd_5 <dbl>, price_usd <dbl>, ts_index <dttm>
…
This step can be thought of as data engineering more than data cleaning, because rather than fixing an issue we are enhancing the dataset with columns that may help with the forecasts.

Let’s view an example of the oldest 30 rows of data associated with the Bitcoin cryptocurrency (symbol == "BTC"). With the oldest data starting from the top, the lagged_price_1h field should have a NA value for the first row because we don’t have any prices before that point. By that same logic, the lagged_price_24h column should be missing the first 24 values and have the last 6 values showing the first 6 rows of the price_usd column. The target_price_24h would values for the oldest data because the opposite is true and we don’t know the values for data for the most recent 24 rows of the data:

print(select(filter(cryptodata, symbol == 'BTC'), 
             ts_index, price_usd, lagged_price_1h, 
             lagged_price_24h, target_price_24h), n=30)

## # A tibble: 2,271 x 6
## # Groups:   symbol [1]
##    symbol ts_index            price_usd lagged_price_1h lagged_price_24h
##    <chr>  <dttm>                  <dbl>           <dbl>            <dbl>
##  1 BTC    2021-01-26 00:00:00    32263.             NA               NA 
##  2 BTC    2021-01-26 01:00:00    32478.          32263.              NA 
##  3 BTC    2021-01-26 02:00:00    32757.          32478.              NA 
##  4 BTC    2021-01-26 03:00:00    32313.          32757.              NA 
##  5 BTC    2021-01-26 04:00:00    31516.          32313.              NA 
##  6 BTC    2021-01-26 05:00:00    32003.          31516.              NA 
##  7 BTC    2021-01-26 06:00:00    32068.          32003.              NA 
##  8 BTC    2021-01-26 07:00:00    31606.          32068.              NA 
##  9 BTC    2021-01-26 08:00:00    31644.          31606.              NA 
## 10 BTC    2021-01-26 09:00:00    31891.          31644.              NA 
## 11 BTC    2021-01-26 10:00:00    31811.          31891.              NA 
## 12 BTC    2021-01-26 11:00:00    32255.          31811.              NA 
## 13 BTC    2021-01-26 12:00:00    31799.          32255.              NA 
## 14 BTC    2021-01-26 13:00:00    31316.          31799.              NA 
## 15 BTC    2021-01-26 14:00:00    31734.          31316.              NA 
## 16 BTC    2021-01-26 15:00:00    31256.          31734.              NA 
## 17 BTC    2021-01-26 16:00:00    31751.          31256.              NA 
## 18 BTC    2021-01-26 17:00:00    31981.          31751.              NA 
## 19 BTC    2021-01-26 18:00:00    32196.          31981.              NA 
## 20 BTC    2021-01-26 19:00:00       NA           32196.              NA 
## 21 BTC    2021-01-26 20:00:00       NA              NA               NA 
## 22 BTC    2021-01-26 21:00:00       NA              NA               NA 
## 23 BTC    2021-01-26 22:00:00       NA              NA               NA 
## 24 BTC    2021-01-26 23:00:00       NA              NA               NA 
## 25 BTC    2021-01-27 00:00:00    32471.             NA            32263.
## 26 BTC    2021-01-27 01:00:00    32351.          32471.           32478.
## 27 BTC    2021-01-27 02:00:00    32102.          32351.           32757.
## 28 BTC    2021-01-27 03:00:00    31813.          32102.           32313.
## 29 BTC    2021-01-27 04:00:00    31799.          31813.           31516.
## 30 BTC    2021-01-27 05:00:00    31865.          31799.           32003.
## # ... with 2,241 more rows, and 1 more variable: target_price_24h <dbl>
…
