Section - 6 Model Validation Plan | Cryptocurrency Research
…
Our data now has the new columns training (train, test or holdout) and split (numbers 1-5) added to it, let’s take a look at the new columns:

select(cryptodata, training, split)

## # A tibble: 250,125 x 3
## # Groups:   symbol [157]
##    symbol training split
##    <chr>  <chr>    <dbl>
##  1 BTC    train        1
##  2 ETH    train        1
##  3 EOS    train        1
##  4 LTC    train        1
##  5 BSV    train        1
##  6 ADA    train        1
##  7 ZEC    train        1
##  8 HT     train        1
##  9 TRX    train        1
## 10 KNC    train        1
## # ... with 250,115 more rows
…
Now let’s create a new object called find_zero_var which shows the value of the minimum standard deviation across all columns and calculated based on the grouping of symbol, split and train:

find_zero_var <- select(mutate(cryptodata, min_sd = min(sd(price_usd, na.rm=T), 
                                                        sd(target_price_24h, na.rm=T),
                                                        sd(lagged_price_1h, na.rm=T), 
                                                        sd(lagged_price_2h, na.rm=T),
                                                        sd(lagged_price_3h, na.rm=T), 
                                                        sd(lagged_price_6h, na.rm=T),
                                                        sd(lagged_price_12h, na.rm=T), 
                                                        sd(lagged_price_24h, na.rm=T))), min_sd)
# Show data
find_zero_var

## # A tibble: 250,125 x 4
## # Groups:   symbol, split, training [1,570]
##    symbol split training     min_sd
##    <chr>  <dbl> <chr>         <dbl>
##  1 BTC        1 train    344.      
##  2 ETH        1 train     34.6     
##  3 EOS        1 train      0.0238  
##  4 LTC        1 train      4.25    
##  5 BSV        1 train      0.967   
##  6 ADA        1 train      0.0122  
##  7 ZEC        1 train      1.02    
##  8 HT         1 train      0.212   
##  9 TRX        1 train      0.000986
## 10 KNC        1 train      0.0308  
## # ... with 250,115 more rows
…
cryptodata <- filter(cryptodata, !(symbol %in% minimum_sd)) 

In the code above we match all rows where the symbol is part of the minimum_sd object with the list of cryptocurrency symbols to remove from the data, and we then negate the selection using the ! operator to only keep rows with symbols not in the list we found.

6.4 Nest data

The underlying data structure we have been using up to this point is that of a data frame. This data type supports values of many kinds inside of its cells, so far we have seen things like numbers, strings, and dates, but we can also store an entire other data frame as a value. Doing this is called nesting the data.

The steps taken below and in the predictive modeling section that comes later use a similar approach to the work published by Hadley Wickham on the subject (Wickham and Grolemund 2017).

Here is an example of what happens when we nest() the data:

nest(cryptodata) 

## # A tibble: 890 x 4
## # Groups:   symbol, training, split [890]
##    symbol training split data               
##    <chr>  <chr>    <dbl> <list>             
##  1 BTC    train        1 <tibble [267 x 11]>
##  2 ETH    train        1 <tibble [271 x 11]>
##  3 EOS    train        1 <tibble [268 x 11]>
##  4 LTC    train        1 <tibble [270 x 11]>
##  5 BSV    train        1 <tibble [271 x 11]>
##  6 ADA    train        1 <tibble [271 x 11]>
##  7 ZEC    train        1 <tibble [271 x 11]>
##  8 HT     train        1 <tibble [268 x 11]>
##  9 TRX    train        1 <tibble [270 x 11]>
## 10 KNC    train        1 <tibble [271 x 11]>
## # ... with 880 more rows
…
cryptodata_train <- group_by(ungroup(mutate(rowwise(cryptodata_train), 
                                            train_rows = nrow(train_data))),
                             symbol, split)
# Remove all symbols where their train data has less than 20 rows at least once
symbols_rm <- unique(filter(cryptodata_train, 
                            split < 5, train_rows < 20)$symbol)
# Remove all data relating to the symbols found above
cryptodata_train <- filter(cryptodata_train, 
                           ! symbol %in% symbols_rm) # ! is to make %not in% operator
# Drop train_rows column
cryptodata_train <- select(cryptodata_train, -train_rows)
# Show results
cryptodata_train

## # A tibble: 440 x 3
## # Groups:   symbol, split [440]
##    symbol split train_data         
##    <chr>  <dbl> <list>             
##  1 BTC        1 <tibble [195 x 11]>
##  2 ETH        1 <tibble [199 x 11]>
##  3 EOS        1 <tibble [196 x 11]>
##  4 LTC        1 <tibble [198 x 11]>
##  5 BSV        1 <tibble [199 x 11]>
##  6 ADA        1 <tibble [199 x 11]>
##  7 ZEC        1 <tibble [199 x 11]>
##  8 HT         1 <tibble [196 x 11]>
##  9 TRX        1 <tibble [198 x 11]>
## 10 KNC        1 <tibble [199 x 11]>
## # ... with 430 more rows

Now let’s repeat the same process but on the test data to create the cryptodata_test object:

cryptodata_test <- select(rename(nest(filter(cryptodata, 
                                             training=='test')), 
                                 test_data = 'data'), 
                          -training)
# Now remove training column
cryptodata_test <- select(ungroup(cryptodata_test, 
                                  training), 
                          -training)
# Show nested data
cryptodata_test

## # A tibble: 356 x 3
## # Groups:   symbol, split [356]
##    symbol split test_data         
##    <chr>  <dbl> <list>            
##  1 ALCX       1 <tibble [47 x 11]>
##  2 OXT        1 <tibble [56 x 11]>
##  3 GAS        1 <tibble [60 x 11]>
##  4 WAXP       1 <tibble [66 x 11]>
##  5 DERC       1 <tibble [66 x 11]>
##  6 BTG        1 <tibble [67 x 11]>
##  7 BTC        1 <tibble [67 x 11]>
##  8 XMR        1 <tibble [65 x 11]>
##  9 DYDX       1 <tibble [67 x 11]>
## 10 EOS        1 <tibble [67 x 11]>
## # ... with 346 more rows

As well as the holdout data to create the cryptodata_holdout object:

cryptodata_holdout <- rename(nest(filter(cryptodata, 
                                         training=='holdout')), 
                             holdout_data = 'data')
# Remove split and training columns from holdout
cryptodata_holdout <- select(ungroup(cryptodata_holdout, split, training), 
                             -split, -training)
# Show nested data
cryptodata_holdout

## # A tibble: 89 x 2
## # Groups:   symbol [89]
##    symbol holdout_data      
##    <chr>  <list>            
##  1 BTG    <tibble [68 x 11]>
##  2 ARNM   <tibble [49 x 11]>
##  3 SXP    <tibble [69 x 11]>
##  4 EOS    <tibble [71 x 11]>
##  5 XMR    <tibble [69 x 11]>
##  6 LTC    <tibble [72 x 11]>
##  7 TRX    <tibble [72 x 11]>
##  8 ZRX    <tibble [72 x 11]>
##  9 DOT    <tibble [72 x 11]>
## 10 ATA    <tibble [72 x 11]>
## # ... with 79 more rows

6.4.1 Join Results

Now we can take the results that we grouped for each subset cryptodata_train, cryptodata_test, and cryptodata_holdout, and we can join the results to have all three new columns train_data, test_data, and holdout_data in a single new dataframe, which we will call cryptodata_nested:

# Join train and test
cryptodata_nested <- left_join(cryptodata_train, cryptodata_test, by = c("symbol", "split"))
# Show new data
cryptodata_nested

## # A tibble: 440 x 4
## # Groups:   symbol, split [440]
##    symbol split train_data          test_data         
##    <chr>  <dbl> <list>              <list>            
##  1 BTC        1 <tibble [195 x 11]> <tibble [67 x 11]>
##  2 ETH        1 <tibble [199 x 11]> <tibble [68 x 11]>
##  3 EOS        1 <tibble [196 x 11]> <tibble [67 x 11]>
##  4 LTC        1 <tibble [198 x 11]> <tibble [68 x 11]>
##  5 BSV        1 <tibble [199 x 11]> <tibble [68 x 11]>
##  6 ADA        1 <tibble [199 x 11]> <tibble [68 x 11]>
##  7 ZEC        1 <tibble [199 x 11]> <tibble [68 x 11]>
##  8 HT         1 <tibble [196 x 11]> <tibble [68 x 11]>
##  9 TRX        1 <tibble [198 x 11]> <tibble [68 x 11]>
## 10 KNC        1 <tibble [199 x 11]> <tibble [68 x 11]>
## # ... with 430 more rows

The by argument used above defines the key to use to join the data by, in this case the cryptocurrency symbol, as well as the specific split.

Next, let’s join the new dataframe we just created cryptodata_nested to the holdout data as well and add the holdout_data column. In this case, we will want to keep the holdout data consistent for all 5 splits of a cryptocurrency instead of matching the data to a particular split; the models trained on the data from splits 1 through 5 will each have a different test dataset, but all 5 models will then be tested against the same holdout. Therefore, this time in the join() performed below we are only supplying the cryptocurrency symbol for the by parameter:

cryptodata_nested <- left_join(cryptodata_nested, cryptodata_holdout, by = "symbol")

Now we have our completed dataset that will allow us to iterate through each option and create many separate models as was discussed throughout this section:

cryptodata_nested

## # A tibble: 440 x 5
## # Groups:   symbol, split [440]
##    symbol split train_data          test_data          holdout_data      
##    <chr>  <dbl> <list>              <list>             <list>            
##  1 BTC        1 <tibble [195 x 11]> <tibble [67 x 11]> <tibble [70 x 11]>
##  2 ETH        1 <tibble [199 x 11]> <tibble [68 x 11]> <tibble [68 x 11]>
##  3 EOS        1 <tibble [196 x 11]> <tibble [67 x 11]> <tibble [71 x 11]>
##  4 LTC        1 <tibble [198 x 11]> <tibble [68 x 11]> <tibble [72 x 11]>
##  5 BSV        1 <tibble [199 x 11]> <tibble [68 x 11]> <tibble [68 x 11]>
##  6 ADA        1 <tibble [199 x 11]> <tibble [68 x 11]> <tibble [68 x 11]>
##  7 ZEC        1 <tibble [199 x 11]> <tibble [68 x 11]> <tibble [68 x 11]>
##  8 HT         1 <tibble [196 x 11]> <tibble [68 x 11]> <tibble [68 x 11]>
##  9 TRX        1 <tibble [198 x 11]> <tibble [68 x 11]> <tibble [72 x 11]>
## 10 KNC        1 <tibble [199 x 11]> <tibble [68 x 11]> <tibble [68 x 11]>
## # ... with 430 more rows
…
