Section - 7 Predictive Modeling | Cryptocurrency Research
…
We defined the formula for the model as target_price_24h ~ ., which means that we are want to make predictions for the target_price_24h field, and use (~) every other column found in the data (.). In other words, we specified a model that uses the target_price_24h field as the dependent variable, and all other columns (.) as the independent variables. Meaning, we are looking to predict the target_price_24h, which is the only column that refers to the future, and use all the information available at the time the rest of the data was collected in order to infer statistical relationships that can help us forecast the future values of the target_price_24h field when it is still unknown on new data that we want to make new predictions for.

In the example above we used the cryptodata object which contained all the non-nested data, and was a big oversimplification of the process we will actually use.

7.1.1 Using Functional Programming

From this point forward, we will deal with the new dataset cryptodata_nested, review the previous section where it was created if you missed it. Here is a preview of the data again:

cryptodata_nested

## # A tibble: 450 x 5
## # Groups:   symbol, split [450]
##    symbol split train_data          test_data          holdout_data      
##    <chr>  <dbl> <list>              <list>             <list>            
##  1 BTC        1 <tibble [195 x 11]> <tibble [67 x 11]> <tibble [68 x 11]>
##  2 ETH        1 <tibble [195 x 11]> <tibble [67 x 11]> <tibble [68 x 11]>
##  3 EOS        1 <tibble [195 x 11]> <tibble [67 x 11]> <tibble [68 x 11]>
##  4 LTC        1 <tibble [195 x 11]> <tibble [67 x 11]> <tibble [68 x 11]>
##  5 BSV        1 <tibble [195 x 11]> <tibble [67 x 11]> <tibble [68 x 11]>
##  6 ADA        1 <tibble [195 x 11]> <tibble [67 x 11]> <tibble [68 x 11]>
##  7 ZEC        1 <tibble [195 x 11]> <tibble [67 x 11]> <tibble [68 x 11]>
##  8 HT         1 <tibble [193 x 11]> <tibble [67 x 11]> <tibble [68 x 11]>
##  9 TRX        1 <tibble [194 x 11]> <tibble [67 x 11]> <tibble [69 x 11]>
## 10 KNC        1 <tibble [195 x 11]> <tibble [67 x 11]> <tibble [68 x 11]>
## # ... with 440 more rows

Because we are now dealing with a nested dataframe, performing operations on the individual nested datasets is not as straightforward. We could extract the individual elements out of the data using indexing, for example we can return the first element of the column train_data by running this code:

cryptodata_nested$train_data[[1]]

## # A tibble: 195 x 11
##    date_time_utc       date       price_usd target_price_24h lagged_price_1h
##    <dttm>              <date>         <dbl>            <dbl>           <dbl>
##  1 2022-08-12 00:00:00 2022-08-12    23934.           24406.          23893.
##  2 2022-08-12 01:00:01 2022-08-12    23966.           24486.          23934.
##  3 2022-08-12 02:00:00 2022-08-12    23908.           24558.          23966.
##  4 2022-08-12 03:00:01 2022-08-12    24011.           24683.          23908.
##  5 2022-08-12 04:00:01 2022-08-12    24015.           24796.          24011.
##  6 2022-08-12 05:00:01 2022-08-12    23931.           24733.          24015.
##  7 2022-08-12 06:00:01 2022-08-12    23952.           24715.          23931.
##  8 2022-08-12 07:00:01 2022-08-12    23956.           24648.          23952.
##  9 2022-08-12 08:00:01 2022-08-12    23961.           24571.          23956.
## 10 2022-08-12 09:00:01 2022-08-12    23919.           24408.          23961.
## # ... with 185 more rows, and 6 more variables: lagged_price_2h <dbl>,
## #   lagged_price_3h <dbl>, lagged_price_6h <dbl>, lagged_price_12h <dbl>,
## #   lagged_price_24h <dbl>, lagged_price_3d <dbl>
…
cryptodata_nested <- filter(cryptodata_nested, symbol != "STORJ")

As we already saw dataframes are really flexible as a data structure. We can create a new column in the data to store the models themselves that are associated with each row of the data. There are several ways that we could go about doing this (this tutorial itself was written to execute the same commands using three fundamentally different methodologies), but in this tutorial we will take a functional programming approach. This means we will focus the operations we will perform on the actions we want to take themselves, which can be contrasted to a for loop which emphasizes the objects more using a similar structure that we used in the example above showing the first element of the train_data column.

When using a functional programming approach, we first need to create functions for the operations we want to perform. Let’s wrap the lm() function we used as an example earlier and create a new custom function called linear_model, which takes a dataframe as an input (the train_data we will provide for each row of the nested dataset), and generates a linear regression model:

linear_model <- function(df){
  lm(target_price_24h ~ . -date_time_utc -date, data = df)
}

We can now use the map() function from the purrr package in conjunction with the mutate() function from dplyr to create a new column in the data which contains an individual linear regression model for each row of train_data:

mutate(cryptodata_nested, lm_model = map(train_data, linear_model))

## # A tibble: 445 x 6
## # Groups:   symbol, split [445]
##    symbol split train_data          test_data         holdout_data      lm_model
##    <chr>  <dbl> <list>              <list>            <list>            <list>  
##  1 BTC        1 <tibble [195 x 11]> <tibble [67 x 11~ <tibble [68 x 11~ <lm>    
##  2 ETH        1 <tibble [195 x 11]> <tibble [67 x 11~ <tibble [68 x 11~ <lm>    
##  3 EOS        1 <tibble [195 x 11]> <tibble [67 x 11~ <tibble [68 x 11~ <lm>    
##  4 LTC        1 <tibble [195 x 11]> <tibble [67 x 11~ <tibble [68 x 11~ <lm>    
##  5 BSV        1 <tibble [195 x 11]> <tibble [67 x 11~ <tibble [68 x 11~ <lm>    
##  6 ADA        1 <tibble [195 x 11]> <tibble [67 x 11~ <tibble [68 x 11~ <lm>    
##  7 ZEC        1 <tibble [195 x 11]> <tibble [67 x 11~ <tibble [68 x 11~ <lm>    
##  8 HT         1 <tibble [193 x 11]> <tibble [67 x 11~ <tibble [68 x 11~ <lm>    
##  9 TRX        1 <tibble [194 x 11]> <tibble [67 x 11~ <tibble [69 x 11~ <lm>    
## 10 KNC        1 <tibble [195 x 11]> <tibble [67 x 11~ <tibble [68 x 11~ <lm>    
## # ... with 435 more rows
…
We can now use the new function we created linear_model_caret in conjunction with map() and mutate() to create a new column in the cryptodata_nested dataset called lm_model with the trained linear regression model for each split of the data (by cryptocurrency symbol and split):

cryptodata_nested <- mutate(cryptodata_nested, 
                            lm_model = map(train_data, linear_model_caret))

We can see the new column called lm_model with the nested dataframe grouping variables:

select(cryptodata_nested, lm_model)

## # A tibble: 445 x 3
## # Groups:   symbol, split [445]
##    symbol split lm_model
##    <chr>  <dbl> <list>  
##  1 BTC        1 <train> 
##  2 ETH        1 <train> 
##  3 EOS        1 <train> 
##  4 LTC        1 <train> 
##  5 BSV        1 <train> 
##  6 ADA        1 <train> 
##  7 ZEC        1 <train> 
##  8 HT         1 <train> 
##  9 TRX        1 <train> 
## 10 KNC        1 <train> 
## # ... with 435 more rows
…
cryptodata_nested <- mutate(cryptodata_nested, 
                            lm_test_predictions =  map2(lm_model,
                                                   test_data,
                                                   make_predictions),
                            
                            lm_holdout_predictions =  map2(lm_model,
                                                      holdout_data,
                                                      make_predictions))

The predictions were made using the models that had only seen the training data, and we can start assessing how good the model is on data it has not seen before in the test and holdout sets. Let’s view the results from the previous step:

select(cryptodata_nested, lm_test_predictions, lm_holdout_predictions)

## # A tibble: 445 x 4
## # Groups:   symbol, split [445]
##    symbol split lm_test_predictions lm_holdout_predictions
##    <chr>  <dbl> <list>              <list>                
##  1 BTC        1 <dbl [67]>          <dbl [68]>            
##  2 ETH        1 <dbl [67]>          <dbl [68]>            
##  3 EOS        1 <dbl [67]>          <dbl [68]>            
##  4 LTC        1 <dbl [67]>          <dbl [68]>            
##  5 BSV        1 <dbl [67]>          <dbl [68]>            
##  6 ADA        1 <dbl [67]>          <dbl [68]>            
##  7 ZEC        1 <dbl [67]>          <dbl [68]>            
##  8 HT         1 <dbl [67]>          <dbl [68]>            
##  9 TRX        1 <dbl [67]>          <dbl [69]>            
## 10 KNC        1 <dbl [67]>          <dbl [68]>            
## # ... with 435 more rows
…
